Estimate Trophic Position - One Source Model - Multiple Groups
…
Working with multiple groups

In {trps} we have
a data set that has consumer and baseline data already joined for two
ecoregions (combined_iso) using the same methods in estimating trophic
position - one source. Let’s look at this data frame.

Organize data - multiple groups

combined_iso
#> # A tibble: 117 × 13
#>       id common_name ecoregion      d13c  d15n d13c_b1 d15n_b1 d13c_b2 d15n_b2    c1    n1    c2    n2
#>    <int> <fct>       <fct>         <dbl> <dbl>   <dbl>   <dbl>   <dbl>   <dbl> <dbl> <dbl> <dbl> <dbl>
#>  1     1 Lake Trout  Anthropogenic -22.3  17.6   -20.3    8.85   -26.4    7.72 -21.3  8.14 -25.3  9.83
#>  2     2 Lake Trout  Anthropogenic -23.0  17.7   -20.1    8.77   -24.4    8.69 -21.3  8.14 -25.3  9.83
#>  3     3 Lake Trout  Anthropogenic -21.2  16.7   -20.3    8.85   -24.8    7.99 -21.3  8.14 -25.3  9.83
#>  4     4 Lake Trout  Anthropogenic -20.9  18.7   -20.1    8.77   -24.4    8.69 -21.3  8.14 -25.3  9.83
#>  5     5 Lake Trout  Anthropogenic -20.7  18.0   -20.5    8.38   -24.8    7.99 -21.3  8.14 -25.3  9.83
#>  6     6 Lake Trout  Anthropogenic -20.7  18.0   -20.1    8.34   -24.4    8.05 -21.3  8.14 -25.3  9.83
#>  7     7 Lake Trout  Anthropogenic -22.8  17.8   -19.7    8.04   -24.1    8.79 -21.3  8.14 -25.3  9.83
#>  8     8 Lake Trout  Anthropogenic -22.4  17.9   -20.1    8.56   -24.6   10.7  -21.3  8.14 -25.3  9.83
#>  9     9 Lake Trout  Anthropogenic -20.9  18.4   -18.7    8.95   -24.3   10.6  -21.3  8.14 -25.3  9.83
#> 10    10 Lake Trout  Anthropogenic -21.7  17.7   -20.8    9.28   -24.6   10.7  -21.3  8.14 -25.3  9.83
#> # ℹ 107 more rows
…
combined_iso_update <- combined_iso %>% 
  dplyr::select(-c(d13c_b2, d15n_b2, c2, n2)) %>% 
  mutate(
    l1 = 2, 
    name = paste(ecoregion, common_name, sep = "_")
  ) %>% 
  dplyr::select(id, common_name, ecoregion, name, d13c:l1)

Let’s view our completed data set.

combined_iso_update
#> # A tibble: 117 × 11
#>       id common_name ecoregion     name                      d13c  d15n d13c_b1 d15n_b1    c1    n1    l1
#>    <int> <fct>       <fct>         <chr>                    <dbl> <dbl>   <dbl>   <dbl> <dbl> <dbl> <dbl>
#>  1     1 Lake Trout  Anthropogenic Anthropogenic_Lake Trout -22.3  17.6   -20.3    8.85 -21.3  8.14     2
#>  2     2 Lake Trout  Anthropogenic Anthropogenic_Lake Trout -23.0  17.7   -20.1    8.77 -21.3  8.14     2
#>  3     3 Lake Trout  Anthropogenic Anthropogenic_Lake Trout -21.2  16.7   -20.3    8.85 -21.3  8.14     2
#>  4     4 Lake Trout  Anthropogenic Anthropogenic_Lake Trout -20.9  18.7   -20.1    8.77 -21.3  8.14     2
#>  5     5 Lake Trout  Anthropogenic Anthropogenic_Lake Trout -20.7  18.0   -20.5    8.38 -21.3  8.14     2
#>  6     6 Lake Trout  Anthropogenic Anthropogenic_Lake Trout -20.7  18.0   -20.1    8.34 -21.3  8.14     2
#>  7     7 Lake Trout  Anthropogenic Anthropogenic_Lake Trout -22.8  17.8   -19.7    8.04 -21.3  8.14     2
#>  8     8 Lake Trout  Anthropogenic Anthropogenic_Lake Trout -22.4  17.9   -20.1    8.56 -21.3  8.14     2
#>  9     9 Lake Trout  Anthropogenic Anthropogenic_Lake Trout -20.9  18.4   -18.7    8.95 -21.3  8.14     2
#> 10    10 Lake Trout  Anthropogenic Anthropogenic_Lake Trout -21.7  17.7   -20.8    9.28 -21.3  8.14     2
#> # ℹ 107 more rows
…
Let’s view the post_draws_mg

post_draws_mg
#> # A tibble: 12,000 × 8
#>    ecoregion     common_name name                     .chain .iteration .draw .variable .value
#>    <fct>         <chr>       <chr>                     <int>      <int> <int> <chr>      <dbl>
#>  1 Anthropogenic Lake Trout  Anthropogenic_Lake Trout      1          1     1 tp          4.87
#>  2 Anthropogenic Lake Trout  Anthropogenic_Lake Trout      1          2     2 tp          4.84
#>  3 Anthropogenic Lake Trout  Anthropogenic_Lake Trout      1          3     3 tp          4.72
#>  4 Anthropogenic Lake Trout  Anthropogenic_Lake Trout      1          4     4 tp          4.80
#>  5 Anthropogenic Lake Trout  Anthropogenic_Lake Trout      1          5     5 tp          4.60
#>  6 Anthropogenic Lake Trout  Anthropogenic_Lake Trout      1          6     6 tp          4.56
#>  7 Anthropogenic Lake Trout  Anthropogenic_Lake Trout      1          7     7 tp          5.05
#>  8 Anthropogenic Lake Trout  Anthropogenic_Lake Trout      1          8     8 tp          4.87
#>  9 Anthropogenic Lake Trout  Anthropogenic_Lake Trout      1          9     9 tp          4.91
#> 10 Anthropogenic Lake Trout  Anthropogenic_Lake Trout      1         10    10 tp          4.81
#> # ℹ 11,990 more rows
…
