Estimate trophic position - one source model
…
Assess data

In {trps} we have
several data sets, they include stable isotope data (\(\delta^{13}C\) and \(\delta^{15}N\)) for a consumer, lake trout
(Salvelinus namaycush), a benthic baseline, amphipods, and a
pelagic baseline, dreissenids, for an ecoregion in Lake Ontario.

Consumer data

We check out each data set with the first being the consumer.

consumer_iso
#> # A tibble: 30 × 4
#>    common_name ecoregion  d13c  d15n
#>    <fct>       <fct>     <dbl> <dbl>
#>  1 Lake Trout  Embayment -22.9  15.9
#>  2 Lake Trout  Embayment -22.5  16.2
#>  3 Lake Trout  Embayment -22.8  17.0
#>  4 Lake Trout  Embayment -22.3  16.6
#>  5 Lake Trout  Embayment -22.5  16.6
#>  6 Lake Trout  Embayment -22.3  16.6
#>  7 Lake Trout  Embayment -22.3  16.6
#>  8 Lake Trout  Embayment -22.5  16.2
#>  9 Lake Trout  Embayment -22.9  16.4
#> 10 Lake Trout  Embayment -22.3  16.3
#> # ℹ 20 more rows
…
combined_iso_os <- combined_iso_os %>% 
  group_by(ecoregion, common_name) %>% 
  mutate(
    c1 = mean(d13c_b1, na.rm = TRUE),
    n1 = mean(d15n_b1, na.rm = TRUE),
    l1 = 2
  ) %>% 
  ungroup()

Let’s view our combined data.

combined_iso_os
#> # A tibble: 30 × 10
#>       id common_name ecoregion  d13c  d15n d13c_b1 d15n_b1    c1    n1    l1
#>    <int> <fct>       <fct>     <dbl> <dbl>   <dbl>   <dbl> <dbl> <dbl> <dbl>
#>  1     1 Lake Trout  Embayment -22.9  15.9   -26.2    8.44 -24.6  8.28     2
#>  2     2 Lake Trout  Embayment -22.5  16.2   -26.6    8.77 -24.6  8.28     2
#>  3     3 Lake Trout  Embayment -22.8  17.0   -26.0    8.05 -24.6  8.28     2
#>  4     4 Lake Trout  Embayment -22.3  16.6   -22.1   13.6  -24.6  8.28     2
#>  5     5 Lake Trout  Embayment -22.5  16.6   -24.3    6.99 -24.6  8.28     2
#>  6     6 Lake Trout  Embayment -22.3  16.6   -22.1    7.95 -24.6  8.28     2
#>  7     7 Lake Trout  Embayment -22.3  16.6   -24.7    7.37 -24.6  8.28     2
#>  8     8 Lake Trout  Embayment -22.5  16.2   -26.6    6.93 -24.6  8.28     2
#>  9     9 Lake Trout  Embayment -22.9  16.4   -24.6    6.97 -24.6  8.28     2
#> 10    10 Lake Trout  Embayment -22.3  16.3   -22.1    7.95 -24.6  8.28     2
#> # ℹ 20 more rows
…
post_draws <- m %>% 
  gather_draws(b_tp_Intercept) %>% 
  mutate(
    ecoregion = "Embayment",
    common_name = "Lake Trout",
    .variable = "tp"
  ) %>% 
  dplyr::select(common_name, ecoregion, .chain:.value)

Let’s view the post_draws

post_draws
#> # A tibble: 6,000 × 7
#> # Groups:   .variable [1]
#>    common_name ecoregion .chain .iteration .draw .variable .value
#>    <chr>       <chr>      <int>      <int> <int> <chr>      <dbl>
#>  1 Lake Trout  Embayment      1          1     1 tp          4.23
#>  2 Lake Trout  Embayment      1          2     2 tp          4.26
#>  3 Lake Trout  Embayment      1          3     3 tp          4.39
#>  4 Lake Trout  Embayment      1          4     4 tp          4.44
#>  5 Lake Trout  Embayment      1          5     5 tp          4.33
#>  6 Lake Trout  Embayment      1          6     6 tp          4.74
#>  7 Lake Trout  Embayment      1          7     7 tp          5.06
#>  8 Lake Trout  Embayment      1          8     8 tp          4.40
#>  9 Lake Trout  Embayment      1          9     9 tp          4.42
#> 10 Lake Trout  Embayment      1         10    10 tp          4.30
#> # ℹ 5,990 more rows
…
Working with multiple groups

In {trps} we have
a data set that has consumer and baseline data already joined for two
ecoregions (combined_iso) using the same methods above.
Let’s look at this data frame.

Organize data - multiple groups

combined_iso
#> # A tibble: 117 × 13
#>       id common_name ecoregion      d13c  d15n d13c_b1 d15n_b1 d13c_b2 d15n_b2    c1    n1    c2    n2
#>    <int> <fct>       <fct>         <dbl> <dbl>   <dbl>   <dbl>   <dbl>   <dbl> <dbl> <dbl> <dbl> <dbl>
#>  1     1 Lake Trout  Anthropogenic -22.3  17.6   -20.3    8.85   -26.4    7.72 -21.3  8.14 -25.3  9.83
#>  2     2 Lake Trout  Anthropogenic -23.0  17.7   -20.1    8.77   -24.4    8.69 -21.3  8.14 -25.3  9.83
#>  3     3 Lake Trout  Anthropogenic -21.2  16.7   -20.3    8.85   -24.8    7.99 -21.3  8.14 -25.3  9.83
#>  4     4 Lake Trout  Anthropogenic -20.9  18.7   -20.1    8.77   -24.4    8.69 -21.3  8.14 -25.3  9.83
#>  5     5 Lake Trout  Anthropogenic -20.7  18.0   -20.5    8.38   -24.8    7.99 -21.3  8.14 -25.3  9.83
#>  6     6 Lake Trout  Anthropogenic -20.7  18.0   -20.1    8.34   -24.4    8.05 -21.3  8.14 -25.3  9.83
#>  7     7 Lake Trout  Anthropogenic -22.8  17.8   -19.7    8.04   -24.1    8.79 -21.3  8.14 -25.3  9.83
#>  8     8 Lake Trout  Anthropogenic -22.4  17.9   -20.1    8.56   -24.6   10.7  -21.3  8.14 -25.3  9.83
#>  9     9 Lake Trout  Anthropogenic -20.9  18.4   -18.7    8.95   -24.3   10.6  -21.3  8.14 -25.3  9.83
#> 10    10 Lake Trout  Anthropogenic -21.7  17.7   -20.8    9.28   -24.6   10.7  -21.3  8.14 -25.3  9.83
#> # ℹ 107 more rows
…
combined_iso_update <- combined_iso %>% 
  dplyr::select(-c(d13c_b2, d15n_b2, c2, n2)) %>% 
  mutate(
    l1 = 2, 
    name = paste(ecoregion, common_name, sep = "_")
  ) %>% 
  dplyr::select(id, common_name, ecoregion, name, d13c:l1)

Let’s view our completed data set.

combined_iso_update
#> # A tibble: 117 × 11
#>       id common_name ecoregion     name                      d13c  d15n d13c_b1 d15n_b1    c1    n1    l1
#>    <int> <fct>       <fct>         <chr>                    <dbl> <dbl>   <dbl>   <dbl> <dbl> <dbl> <dbl>
#>  1     1 Lake Trout  Anthropogenic Anthropogenic_Lake Trout -22.3  17.6   -20.3    8.85 -21.3  8.14     2
#>  2     2 Lake Trout  Anthropogenic Anthropogenic_Lake Trout -23.0  17.7   -20.1    8.77 -21.3  8.14     2
#>  3     3 Lake Trout  Anthropogenic Anthropogenic_Lake Trout -21.2  16.7   -20.3    8.85 -21.3  8.14     2
#>  4     4 Lake Trout  Anthropogenic Anthropogenic_Lake Trout -20.9  18.7   -20.1    8.77 -21.3  8.14     2
#>  5     5 Lake Trout  Anthropogenic Anthropogenic_Lake Trout -20.7  18.0   -20.5    8.38 -21.3  8.14     2
#>  6     6 Lake Trout  Anthropogenic Anthropogenic_Lake Trout -20.7  18.0   -20.1    8.34 -21.3  8.14     2
#>  7     7 Lake Trout  Anthropogenic Anthropogenic_Lake Trout -22.8  17.8   -19.7    8.04 -21.3  8.14     2
#>  8     8 Lake Trout  Anthropogenic Anthropogenic_Lake Trout -22.4  17.9   -20.1    8.56 -21.3  8.14     2
#>  9     9 Lake Trout  Anthropogenic Anthropogenic_Lake Trout -20.9  18.4   -18.7    8.95 -21.3  8.14     2
#> 10    10 Lake Trout  Anthropogenic Anthropogenic_Lake Trout -21.7  17.7   -20.8    9.28 -21.3  8.14     2
#> # ℹ 107 more rows
…
Let’s view the post_draws_mg

post_draws_mg
#> # A tibble: 12,000 × 8
#>    ecoregion     common_name name                     .chain .iteration .draw .variable .value
#>    <fct>         <chr>       <chr>                     <int>      <int> <int> <chr>      <dbl>
#>  1 Anthropogenic Lake Trout  Anthropogenic_Lake Trout      1          1     1 tp          4.87
#>  2 Anthropogenic Lake Trout  Anthropogenic_Lake Trout      1          2     2 tp          4.84
#>  3 Anthropogenic Lake Trout  Anthropogenic_Lake Trout      1          3     3 tp          4.72
#>  4 Anthropogenic Lake Trout  Anthropogenic_Lake Trout      1          4     4 tp          4.80
#>  5 Anthropogenic Lake Trout  Anthropogenic_Lake Trout      1          5     5 tp          4.60
#>  6 Anthropogenic Lake Trout  Anthropogenic_Lake Trout      1          6     6 tp          4.56
#>  7 Anthropogenic Lake Trout  Anthropogenic_Lake Trout      1          7     7 tp          5.05
#>  8 Anthropogenic Lake Trout  Anthropogenic_Lake Trout      1          8     8 tp          4.87
#>  9 Anthropogenic Lake Trout  Anthropogenic_Lake Trout      1          9     9 tp          4.91
#> 10 Anthropogenic Lake Trout  Anthropogenic_Lake Trout      1         10    10 tp          4.81
#> # ℹ 11,990 more rows
…
