Estimate Trophic Position - Two Source Model • trps
…
In {trps} we have
several data sets, they include stable isotope data
(δ13C\delta^{13}C
and
δ15N\delta^{15}N)
for a consumer, lake trout (Salvelinus namaycush), a benthic
baseline, amphipods, and a pelagic baseline, dreissenids, for an
ecoregion in Lake Ontario.

Consumer data

We check out each data set with the first being the consumer.

consumer_iso
#> # A tibble: 30 × 4
#>    common_name ecoregion  d13c  d15n
#>    <fct>       <fct>     <dbl> <dbl>
#>  1 Lake Trout  Embayment -22.9  15.9
#>  2 Lake Trout  Embayment -22.5  16.2
#>  3 Lake Trout  Embayment -22.8  17.0
#>  4 Lake Trout  Embayment -22.3  16.6
#>  5 Lake Trout  Embayment -22.5  16.6
#>  6 Lake Trout  Embayment -22.3  16.6
#>  7 Lake Trout  Embayment -22.3  16.6
#>  8 Lake Trout  Embayment -22.5  16.2
#>  9 Lake Trout  Embayment -22.9  16.4
#> 10 Lake Trout  Embayment -22.3  16.3
#> # ℹ 20 more rows

We can see that this data set contains the common_name
of the consumer, the ecoregion samples were collected from,
and
δ13C\delta^{13}C
(d13c) and
δ15N\delta^{15}N
(d15n).

Baseline data

Next we check out the benthic baseline data set.

baseline_1_iso
#> # A tibble: 36 × 4
#>    common_name ecoregion     d13c_b1 d15n_b1
#>    <fct>       <fct>           <dbl>   <dbl>
#>  1 Amphipoda   Anthropogenic   -20.3    8.85
#>  2 Amphipoda   Anthropogenic   -20.1    8.77
#>  3 Amphipoda   Anthropogenic   -20.3    8.85
#>  4 Amphipoda   Anthropogenic   -20.1    8.77
#>  5 Amphipoda   Anthropogenic   -20.5    8.38
#>  6 Amphipoda   Anthropogenic   -20.1    8.34
#>  7 Amphipoda   Anthropogenic   -19.7    8.04
#>  8 Amphipoda   Anthropogenic   -20.1    8.56
#>  9 Amphipoda   Anthropogenic   -18.7    8.95
#> 10 Amphipoda   Anthropogenic   -20.8    9.28
#> # ℹ 26 more rows
…
combined_iso_ts_1 <- combined_iso_ts %>%
  group_by(ecoregion, common_name) %>%
  mutate(
    c1 = mean(d13c_b1, na.rm = TRUE),
    n1 = mean(d15n_b1, na.rm = TRUE),
    c2 = mean(d13c_b2, na.rm = TRUE),
    n2 = mean(d15n_b2, na.rm = TRUE),
    l1 = 2
  ) %>%
  ungroup()

Let’s view our combined data.

combined_iso_ts_1
#> # A tibble: 30 × 14
#>       id common_name ecoregion  d13c  d15n d13c_b1 d15n_b1 d13c_b2 d15n_b2    c1
#>    <int> <fct>       <fct>     <dbl> <dbl>   <dbl>   <dbl>   <dbl>   <dbl> <dbl>
#>  1     1 Lake Trout  Embayment -22.9  15.9   -26.2    8.44   -23.4    7.81 -24.6
#>  2     2 Lake Trout  Embayment -22.5  16.2   -26.6    8.77   -22.9    7.61 -24.6
#>  3     3 Lake Trout  Embayment -22.8  17.0   -26.0    8.05   -22.7    7.32 -24.6
#>  4     4 Lake Trout  Embayment -22.3  16.6   -22.1   13.6    -23.4    7.81 -24.6
#>  5     5 Lake Trout  Embayment -22.5  16.6   -24.3    6.99   -22.9    7.61 -24.6
#>  6     6 Lake Trout  Embayment -22.3  16.6   -22.1    7.95   -22.7    7.32 -24.6
#>  7     7 Lake Trout  Embayment -22.3  16.6   -24.7    7.37   -23.4    7.81 -24.6
#>  8     8 Lake Trout  Embayment -22.5  16.2   -26.6    6.93   -22.9    7.61 -24.6
#>  9     9 Lake Trout  Embayment -22.9  16.4   -24.6    6.97   -22.7    7.32 -24.6
#> 10    10 Lake Trout  Embayment -22.3  16.3   -22.1    7.95   -26.9   10.2  -24.6
#> # ℹ 20 more rows
#> # ℹ 4 more variables: n1 <dbl>, c2 <dbl>, n2 <dbl>, l1 <dbl>
…
Let’s view the post_draws

post_draws
#> # A tibble: 12,000 × 7
#> # Groups:   .variable [2]
#>    common_name ecoregion .chain .iteration .draw .variable   .value
#>    <chr>       <chr>      <int>      <int> <int> <chr>        <dbl>
#>  1 Lake Trout  Embayment      1          1     1 alpha     0.00464 
#>  2 Lake Trout  Embayment      1          2     2 alpha     0.0472  
#>  3 Lake Trout  Embayment      1          3     3 alpha     0.0153  
#>  4 Lake Trout  Embayment      1          4     4 alpha     0.0236  
#>  5 Lake Trout  Embayment      1          5     5 alpha     0.0212  
#>  6 Lake Trout  Embayment      1          6     6 alpha     0.00227 
#>  7 Lake Trout  Embayment      1          7     7 alpha     0.00194 
#>  8 Lake Trout  Embayment      1          8     8 alpha     0.0634  
#>  9 Lake Trout  Embayment      1          9     9 alpha     0.000480
#> 10 Lake Trout  Embayment      1         10    10 alpha     0.000134
#> # ℹ 11,990 more rows
…
