Estimate trophic position - one source model • trps
…
Consumer data

We will check out each data set with the first being the
consumer.

consumer_iso
#> # A tibble: 30 × 4
#>    common_name ecoregion  d13c  d15n
#>    <fct>       <fct>     <dbl> <dbl>
#>  1 Lake Trout  Embayment -22.9  15.9
#>  2 Lake Trout  Embayment -22.5  16.2
#>  3 Lake Trout  Embayment -22.8  17.0
#>  4 Lake Trout  Embayment -22.3  16.6
#>  5 Lake Trout  Embayment -22.5  16.6
#>  6 Lake Trout  Embayment -22.3  16.6
#>  7 Lake Trout  Embayment -22.3  16.6
#>  8 Lake Trout  Embayment -22.5  16.2
#>  9 Lake Trout  Embayment -22.9  16.4
#> 10 Lake Trout  Embayment -22.3  16.3
#> # ℹ 20 more rows
…
combined_iso_os <- consumer_iso %>% 
  left_join(baseline_1_iso, by = c("id", "ecoregion")) %>% 
  mutate(
    l1 = 2
  )

We can see that we have successfully combined our consumer and
baseline data.

combined_iso_os
#> # A tibble: 30 × 8
#>       id common_name ecoregion  d13c  d15n    c1    n1    l1
#>    <int> <fct>       <fct>     <dbl> <dbl> <dbl> <dbl> <dbl>
#>  1     1 Lake Trout  Embayment -22.9  15.9 -26.2  8.44     2
#>  2     2 Lake Trout  Embayment -22.5  16.2 -26.6  8.77     2
#>  3     3 Lake Trout  Embayment -22.8  17.0 -26.0  8.05     2
#>  4     4 Lake Trout  Embayment -22.3  16.6 -22.1 13.6      2
#>  5     5 Lake Trout  Embayment -22.5  16.6 -24.3  6.99     2
#>  6     6 Lake Trout  Embayment -22.3  16.6 -22.1  7.95     2
#>  7     7 Lake Trout  Embayment -22.3  16.6 -24.7  7.37     2
#>  8     8 Lake Trout  Embayment -22.5  16.2 -26.6  6.93     2
#>  9     9 Lake Trout  Embayment -22.9  16.4 -24.6  6.97     2
#> 10    10 Lake Trout  Embayment -22.3  16.3 -22.1  7.95     2
#> # ℹ 20 more rows
…
You will notice that "b_tp_Intercept" is the name of the
variable in the model object that we are most interested in extracting.
We then get posterior draws using gather_draws(). I am
going to rename "b_tp_Intercept" to tp.

post_draws <- m %>% 
  gather_draws(b_tp_Intercept) %>% 
  mutate(
    .variable = "tp"
  )

Let’s view the post_draws

post_draws
#> # A tibble: 6,000 × 5
#> # Groups:   .variable [1]
#>    .chain .iteration .draw .variable .value
#>     <int>      <int> <int> <chr>      <dbl>
#>  1      1          1     1 tp          4.49
#>  2      1          2     2 tp          4.94
#>  3      1          3     3 tp          4.50
#>  4      1          4     4 tp          4.24
#>  5      1          5     5 tp          4.26
#>  6      1          6     6 tp          4.34
#>  7      1          7     7 tp          4.09
#>  8      1          8     8 tp          4.46
#>  9      1          9     9 tp          4.57
#> 10      1         10    10 tp          4.03
#> # ℹ 5,990 more rows
…
